C:\Users\Sistemas36\Documents\NetBeansProjects\Ejercicios1y2\src\main\java\pojo\Persona.java
C:\Users\Sistemas36\Documents\NetBeansProjects\Ejercicios1y2\src\main\java\pojo\Empleado.java
C:\Users\Sistemas36\Documents\NetBeansProjects\Ejercicios1y2\src\main\java\app\Application.java
